%YAML 1.1
%TAG !u! tag:unity3d.com,2011:
--- !u!1045 &1
EditorBuildSettings:
  m_ObjectHideFlags: 0
  serializedVersion: 2
  m_Scenes:
  - enabled: 1
    path: Assets/Table and chair/Demo scene.unity
    guid: 806dc72b623b70b4a9124a2e2dccba90
  m_configObjects: {}
